{
  "iisSettings": {
    "windowsAuthentication": true,
    "anonymousAuthentication": true,
    "iisExpress": {
      "applicationUrl": "http://localhost:34121",
      "sslPort": 44393
    }
  },
  "profiles": {
    "IIS Express": {
      "commandName": "Project",
      "launchBrowser": true,
      "launchUrl": "swagger",
      "environmentVariables": {
        "ASPNETCORE_ENVIRONMENT": "Development"
      },
      "nativeDebugging": true
    },
    "WalletApi": {
      "commandName": "Project",
      "launchBrowser": true,
      "environmentVariables": {
        "ASPNETCORE_ENVIRONMENT": "Development"
      },
      "applicationUrl": "https://localhost:5001;http://localhost:5000"
    }
  }
}